{
  "project_info": {
    "project_number": "743667494561",
    "firebase_url": "https://arokia-swamy.firebaseio.com",
    "project_id": "arokia-swamy",
    "storage_bucket": "arokia-swamy.appspot.com"
  },
  "client": [
    {
      "client_info": {
        "mobilesdk_app_id": "1:743667494561:android:bef3cf5963794c46",
        "android_client_info": {
          "package_name": "in.glivade.tastydeals"
        }
      },
      "oauth_client": [
        {
          "client_id": "743667494561-jlni14iecc3v0rg9s97mbsi607lkjkjr.apps.googleusercontent.com",
          "client_type": 3
        }
      ],
      "api_key": [
        {
          "current_key": "AIzaSyB0f_kzXFzdR_bEYmOKApR_ky_Ky-CfTrQ"
        }
      ],
      "services": {
        "analytics_service": {
          "status": 1
        },
        "appinvite_service": {
          "status": 1,
          "other_platform_oauth_client": []
        },
        "ads_service": {
          "status": 2
        }
      }
    },
    {
      "client_info": {
        "mobilesdk_app_id": "1:743667494561:android:f5c65650192236ec",
        "android_client_info": {
          "package_name": "in.glivade.tastydealsshop"
        }
      },
      "oauth_client": [
        {
          "client_id": "743667494561-jlni14iecc3v0rg9s97mbsi607lkjkjr.apps.googleusercontent.com",
          "client_type": 3
        }
      ],
      "api_key": [
        {
          "current_key": "AIzaSyB0f_kzXFzdR_bEYmOKApR_ky_Ky-CfTrQ"
        }
      ],
      "services": {
        "analytics_service": {
          "status": 1
        },
        "appinvite_service": {
          "status": 1,
          "other_platform_oauth_client": []
        },
        "ads_service": {
          "status": 2
        }
      }
    },
    {
      "client_info": {
        "mobilesdk_app_id": "1:743667494561:android:6f518081fd80e63f",
        "android_client_info": {
          "package_name": "in.glivade.motionsurveillancesystem"
        }
      },
      "oauth_client": [
        {
          "client_id": "743667494561-jlni14iecc3v0rg9s97mbsi607lkjkjr.apps.googleusercontent.com",
          "client_type": 3
        }
      ],
      "api_key": [
        {
          "current_key": "AIzaSyB0f_kzXFzdR_bEYmOKApR_ky_Ky-CfTrQ"
        }
      ],
      "services": {
        "analytics_service": {
          "status": 1
        },
        "appinvite_service": {
          "status": 1,
          "other_platform_oauth_client": []
        },
        "ads_service": {
          "status": 2
        }
      }
    }
  ],
  "configuration_version": "1"
}